{
    "irc": {
        "host": "irc.libera.chat",
        "port": 6667,
        "password": "",
        "nick": "ircbot",
        "fullname": "ircbot",
        "channels": [
            "####"
        ]
    },
    "commands": {
        "prefix": "!bot",
        "delay": 1000
    },
    "debug": {
        "level": 0
    }
}